CAPM and Eugene Fama's devastating critique | Data Analysis & Economic Cybernetics
…
  tq_get(
    get  = "stock.prices", 
    from = "2015-01-01", 
    to   = "2017-12-31"
  ) %>% 
  group_by(symbol) %>% 
  tq_transmute(
    select     = adjusted,
    mutate_fun = periodReturn,
    period     = "daily", 
    col_rename = "Ra"
  )
Ra

## # A tibble: 3,775 x 3
## # Groups:   symbol [5]
##    symbol date             Ra
##    <chr>  <date>        <dbl>
##  1 GOOGL  2015-01-02  0.     
##  2 GOOGL  2015-01-05 -0.0191 
##  3 GOOGL  2015-01-06 -0.0247 
##  4 GOOGL  2015-01-07 -0.00294
##  5 GOOGL  2015-01-08  0.00348
##  6 GOOGL  2015-01-09 -0.0122 
##  7 GOOGL  2015-01-12 -0.00731
##  8 GOOGL  2015-01-13  0.00954
##  9 GOOGL  2015-01-14  0.00823
## 10 GOOGL  2015-01-15 -0.00379
## # ... with 3,765 more rows
…
Rb <- SP %>% na.omit() %>% tk_tbl(rename_index = "date") %>% 
  rename(Rb = SP500) %>% 
  filter(date > as.Date("2015-01-01") & 
           date < as.Date("2017-12-31")) %>% 
  tq_transmute(
    select     = Rb,
    mutate_fun = periodReturn, 
    period     = "daily", 
    col_rename = "Rb"
  )
# check the number of days
# nrow(Rb); nrow(Ra[Ra$symbol == "GOOGL",])
Rb

## # A tibble: 755 x 2
##    date             Rb
##    <date>        <dbl>
##  1 2015-01-02  0.     
##  2 2015-01-05 -0.0183 
##  3 2015-01-06 -0.00889
##  4 2015-01-07  0.0116 
##  5 2015-01-08  0.0179 
##  6 2015-01-09 -0.00840
##  7 2015-01-12 -0.00809
##  8 2015-01-13 -0.00258
##  9 2015-01-14 -0.00581
## 10 2015-01-15 -0.00925
## # ... with 745 more rows

data <- left_join(Ra, Rb, by = "date")
data

## # A tibble: 3,775 x 4
## # Groups:   symbol [?]
##    symbol date             Ra       Rb
##    <chr>  <date>        <dbl>    <dbl>
##  1 GOOGL  2015-01-02  0.       0.     
##  2 GOOGL  2015-01-05 -0.0191  -0.0183 
##  3 GOOGL  2015-01-06 -0.0247  -0.00889
##  4 GOOGL  2015-01-07 -0.00294  0.0116 
##  5 GOOGL  2015-01-08  0.00348  0.0179 
##  6 GOOGL  2015-01-09 -0.0122  -0.00840
##  7 GOOGL  2015-01-12 -0.00731 -0.00809
##  8 GOOGL  2015-01-13  0.00954 -0.00258
##  9 GOOGL  2015-01-14  0.00823 -0.00581
## 10 GOOGL  2015-01-15 -0.00379 -0.00925
## # ... with 3,765 more rows
…
