…
  tq_get(
    get  = "stock.prices", 
    from = "2015-01-01", 
    to   = "2017-12-31"
  ) %>% 
  group_by(symbol) %>% 
  tq_transmute(
    select     = adjusted,
    mutate_fun = periodReturn,
    period     = "daily", 
    col_rename = "Ra"
  )
Ra

## # A tibble: 3,775 x 3
## # Groups:   symbol [5]
##    symbol       date           Ra
##     <chr>     <date>        <dbl>
##  1  GOOGL 2015-01-02  0.000000000
##  2  GOOGL 2015-01-05 -0.019053850
##  3  GOOGL 2015-01-06 -0.024679487
##  4  GOOGL 2015-01-07 -0.002940986
##  5  GOOGL 2015-01-08  0.003484133
##  6  GOOGL 2015-01-09 -0.012211246
##  7  GOOGL 2015-01-12 -0.007309480
##  8  GOOGL 2015-01-13  0.009536052
##  9  GOOGL 2015-01-14  0.008230381
## 10  GOOGL 2015-01-15 -0.003794958
## # ... with 3,765 more rows
…
Rb <- SP %>% na.omit() %>% tk_tbl(rename_index = "date") %>% 
  rename(Rb = SP500) %>% 
  filter(date > as.Date("2015-01-01") & 
           date < as.Date("2017-12-31")) %>% 
  tq_transmute(
    select     = Rb,
    mutate_fun = periodReturn, 
    period     = "daily", 
    col_rename = "Rb"
  )
# check the number of days
# nrow(Rb); nrow(Ra[Ra$symbol == "GOOGL",])
Rb

## # A tibble: 755 x 2
##          date           Rb
##        <date>        <dbl>
##  1 2015-01-02  0.000000000
##  2 2015-01-05 -0.018278107
##  3 2015-01-06 -0.008893486
##  4 2015-01-07  0.011629823
##  5 2015-01-08  0.017888346
##  6 2015-01-09 -0.008403891
##  7 2015-01-12 -0.008093662
##  8 2015-01-13 -0.002578565
##  9 2015-01-14 -0.005813063
## 10 2015-01-15 -0.009247888
## # ... with 745 more rows

data <- left_join(Ra, Rb, by = "date")
data

## # A tibble: 3,775 x 4
## # Groups:   symbol [?]
##    symbol       date           Ra           Rb
##     <chr>     <date>        <dbl>        <dbl>
##  1  GOOGL 2015-01-02  0.000000000  0.000000000
##  2  GOOGL 2015-01-05 -0.019053850 -0.018278107
##  3  GOOGL 2015-01-06 -0.024679487 -0.008893486
##  4  GOOGL 2015-01-07 -0.002940986  0.011629823
##  5  GOOGL 2015-01-08  0.003484133  0.017888346
##  6  GOOGL 2015-01-09 -0.012211246 -0.008403891
##  7  GOOGL 2015-01-12 -0.007309480 -0.008093662
##  8  GOOGL 2015-01-13  0.009536052 -0.002578565
##  9  GOOGL 2015-01-14  0.008230381 -0.005813063
## 10  GOOGL 2015-01-15 -0.003794958 -0.009247888
## # ... with 3,765 more rows
…
